{
  "currency": "eur",
  "baseData": [
    {
      "key": "revenues",
      "title": "Revenues",
      "values": [
        1476.00,
        2091.00
      ],
      "type": "currency",
      "summaryData": false,
      "description": null
    },
    {
      "key": "costs",
      "title": "Costs",
      "values": [
        26868.12,
        10100.25
      ],
      "type": "currency",
      "summaryData": false,
      "description": null
    },
    {
      "key": "profits",
      "title": "Profits",
      "values": [
        -25392.12,
        15000.25
      ],
      "type": "currency",
      "summaryData": false,
      "description": null
    }
  ],
  "complexData": [
    {
      "key": "siteDevelopment",
      "title": "Site development",
      "values": [
        14000.00,
        0
      ],
      "type": "currency",
      "summaryData": false,
      "description": "For any event, you will need a website to direct your traffic to. If you already have one, you need a dedicated section for managing your live pay-per-views. Such sites must be using responsive design so they work on all devices – computers, phones, tablets and smart TVs. Then comes the mandatory functions including a 1-click registration process, all social media integrations and couponing & promotional solution system, not to mention translations and popular payment methods for your users. All of this has been properly tested. With Cleeng Live, our cloud-based templates provide all the tools you need: full landing page, player to embed on your existing site(s), registration with Facebook or Google and much more. No need to spend a fortune with building it, we have done it for more than 5000 publishers already, from top brands to smaller event organizers."
    },
    {
      "key": "siteMaintenance",
      "title": "Site maintenance",
      "values": [
        2800.00,
        0
      ],
      "type": "currency",
      "summaryData": false,
      "description": "Once set up, the site needs to be configured, tested and optimized prior, during and after the live event so that your viewers can transact super fast. The Cleeng SaaS platform spares you from all the costs associated with a domain, hosting and databases. Cleeng deals with the load testing, SSL acceleration, high peak traffic increase and high velocity transactions. Nothing needs to be done on your side."
    },
    {
      "key": "recording&productionCosts",
      "title": "Recording & production costs",
      "values": [
        7000.00,
        7000.00
      ],
      "type": "currency",
      "summaryData": false,
      "description": null
    },
    {
      "key": "liveStreamingFees",
      "title": "Live streaming fees",
      "values": [
        3000.00,
        3000.00
      ],
      "type": "currency",
      "summaryData": false,
      "description": null
    },
    {
      "key": "expectedQuality",
      "title": "Expected quality",
      "values": [
        "Mid",
        "Mid"
      ],
      "type": "string",
      "summaryData": false,
      "description": null
    },
    {
      "key": "totalFixedCosts",
      "title": "Total fixed costs",
      "values": [
        26,
        800.00,
        10000.00
      ],
      "type": "currency",
      "summaryData": true,
      "description": null
    },
    {
      "key": "TrafficRequired",
      "title": "Traffic required",
      "values": [
        171,
        171
      ],
      "type": "number",
      "summaryData": false,
      "description": null
    },
    {
      "key": "conversionRate",
      "title": "Conversion rate",
      "values": [
        7,
        10
      ],
      "type": "percentage",
      "summaryData": false,
      "description": null
    },
    {
      "key": "expectedTicked",
      "title": "Expected ticked",
      "values": [
        12,
        17
      ],
      "type": "number",
      "summaryData": false,
      "description": null
    },
    {
      "key": "ticketPrice",
      "title": "Ticket price",
      "values": [
        123.00,
        123.00
      ],
      "type": "currency",
      "summaryData": false,
      "description": null
    },
    {
      "key": "grossRevenues",
      "title": "Gross revenues",
      "values": [
        1476.00,
        2091.00
      ],
      "type": "currency",
      "summaryData": true,
      "description": null
    },
    {
      "key": "percentageOfInquiries",
      "title": "Percentage of inquiries",
      "values": [
        4.0,
        1.2
      ],
      "type": "percentage",
      "summaryData": false,
      "description": null
    },
    {
      "key": "costsPerInquiry",
      "title": "Costs per inquiry",
      "values": [
        8,
        0
      ],
      "type": "currency",
      "summaryData": false,
      "description": null
    },
    {
      "key": "supportCosts",
      "title": "Support costs",
      "values": [
        3.84,
        0.00
      ],
      "type": "currency",
      "summaryData": false,
      "description": null
    },
    {
      "key": "refundRate",
      "title": "Refund rate",
      "values": [
        3.0,
        0.8
      ],
      "type": "percentage",
      "summaryData": false,
      "description": null
    },
    {
      "key": "refundedCustomers",
      "title": "Refunded customers",
      "values": [
        0,
        0
      ],
      "type": "currency",
      "summaryData": false,
      "description": null
    },
    {
      "key": "refundedRevenues",
      "title": "Refunded revenues",
      "values": [
        0.00,
        0.00
      ],
      "type": "currency",
      "summaryData": true,
      "description": null
    },
    {
      "key": "streamingFees",
      "title": "Streaming fees",
      "values": [
        6.00,
        8.50
      ],
      "type": "currency",
      "summaryData": false,
      "description": null
    },
    {
      "key": "paymentFees",
      "title": "Payment fees",
      "values": [
        46.28,
        65.57
      ],
      "type": "currency",
      "summaryData": false,
      "description": null
    },
    {
      "key": "cleengCoreFees",
      "title": "Cleeng Core Fees",
      "values": [
        0.00,
        12.58
      ],
      "type": "currency",
      "summaryData": false,
      "description": null
    },
    {
      "key": "customerSupportFees",
      "title": "Customer Support Fees",
      "values": [
        12.00,
        13.60
      ],
      "type": "currency",
      "summaryData": false,
      "description": null
    },
    {
      "key": "eventEeadinessFees",
      "title": "Event readiness fees",
      "values": [
        0.00,
        0.00
      ],
      "type": "currency",
      "summaryData": false,
      "description": "The event readiness fees are the costs for the setup and preparation of a live event. Before launching the event, Cleeng’s staff checks all the key setup elements for you and offers a sandbox environment for testing before deployment. See for yourself the increase of net profit you could get by working with Cleeng. Decrease your costs while improving your profits."
    },
    {
      "key": "totalCosts",
      "title": "Total Costs",
      "values": [
        26868.12,
        10100.25
      ],
      "type": "currency",
      "summaryData": true,
      "description": null
    },
    {
      "key": "netProfits",
      "title": "Net profits",
      "values": [
        8009.25,
        25392.12
      ],
      "type": "",
      "summaryData": true,
      "description": null
    }
  ]
}